[api-updater (non-obsolete-error-filter)] 11/02/2022 19:07:35 : Starting C:/Program Files/Unity/Hub/Editor/2020.3.26f1/Editor/Data/Tools/ScriptUpdater/APIUpdater.NonObsoleteApiUpdaterDetector.exe
[api-updater (non-obsolete-error-filter)] 
----------------------------------
jit/startup time      : 1213,9114ms
moved types parse time: 64ms
candidates parse time : 1ms
C# parse time         : 769ms
candidates check time : 33ms
console write time    : 1ms

[api-updater (non-obsolete-error-filter)] 11/02/2022 19:07:51 : Starting C:/Program Files/Unity/Hub/Editor/2020.3.26f1/Editor/Data/Tools/ScriptUpdater/APIUpdater.NonObsoleteApiUpdaterDetector.exe
[api-updater (non-obsolete-error-filter)] 
----------------------------------
jit/startup time      : 119,3374ms
moved types parse time: 65ms
candidates parse time : 1ms
C# parse time         : 205ms
candidates check time : 33ms
console write time    : 0ms

[api-updater (non-obsolete-error-filter)] 12/02/2022 15:43:57 : Starting C:/Program Files/Unity/Hub/Editor/2020.3.26f1/Editor/Data/Tools/ScriptUpdater/APIUpdater.NonObsoleteApiUpdaterDetector.exe
[api-updater (non-obsolete-error-filter)] 
----------------------------------
jit/startup time      : 1086,5036ms
moved types parse time: 55ms
candidates parse time : 1ms
C# parse time         : 763ms
candidates check time : 42ms
console write time    : 0ms

[api-updater (non-obsolete-error-filter)] 12/02/2022 15:44:54 : Starting C:/Program Files/Unity/Hub/Editor/2020.3.26f1/Editor/Data/Tools/ScriptUpdater/APIUpdater.NonObsoleteApiUpdaterDetector.exe
[api-updater (non-obsolete-error-filter)] 
----------------------------------
jit/startup time      : 125,6158ms
moved types parse time: 69ms
candidates parse time : 1ms
C# parse time         : 226ms
candidates check time : 38ms
console write time    : 0ms

[api-updater (non-obsolete-error-filter)] 12/02/2022 15:45:35 : Starting C:/Program Files/Unity/Hub/Editor/2020.3.26f1/Editor/Data/Tools/ScriptUpdater/APIUpdater.NonObsoleteApiUpdaterDetector.exe
[api-updater (non-obsolete-error-filter)] 
----------------------------------
jit/startup time      : 98,9951ms
moved types parse time: 67ms
candidates parse time : 2ms
C# parse time         : 237ms
candidates check time : 35ms
console write time    : 0ms

[api-updater (non-obsolete-error-filter)] 12/02/2022 17:51:55 : Starting C:/Program Files/Unity/Hub/Editor/2020.3.26f1/Editor/Data/Tools/ScriptUpdater/APIUpdater.NonObsoleteApiUpdaterDetector.exe
[api-updater (non-obsolete-error-filter)] 
----------------------------------
jit/startup time      : 84,9989ms
moved types parse time: 52ms
candidates parse time : 1ms
C# parse time         : 175ms
candidates check time : 94ms
console write time    : 0ms

[api-updater (non-obsolete-error-filter)] 13/02/2022 00:52:02 : Starting C:/Program Files/Unity/Hub/Editor/2020.3.26f1/Editor/Data/Tools/ScriptUpdater/APIUpdater.NonObsoleteApiUpdaterDetector.exe
[api-updater (non-obsolete-error-filter)] 
----------------------------------
jit/startup time      : 952,0198ms
moved types parse time: 46ms
candidates parse time : 1ms
C# parse time         : 593ms
candidates check time : 28ms
console write time    : 2ms

[api-updater (non-obsolete-error-filter)] 13/02/2022 18:52:58 : Starting C:/Program Files/Unity/Hub/Editor/2020.3.26f1/Editor/Data/Tools/ScriptUpdater/APIUpdater.NonObsoleteApiUpdaterDetector.exe
[api-updater (non-obsolete-error-filter)] 
----------------------------------
jit/startup time      : 1535,5339ms
moved types parse time: 109ms
candidates parse time : 1ms
C# parse time         : 914ms
candidates check time : 46ms
console write time    : 1ms

[api-updater (non-obsolete-error-filter)] 15/02/2022 19:44:24 : Starting C:/Program Files/Unity/Hub/Editor/2020.3.26f1/Editor/Data/Tools/ScriptUpdater/APIUpdater.NonObsoleteApiUpdaterDetector.exe
[api-updater (non-obsolete-error-filter)] 
----------------------------------
jit/startup time      : 1752,6385ms
moved types parse time: 96ms
candidates parse time : 1ms
C# parse time         : 969ms
candidates check time : 65ms
console write time    : 0ms

[api-updater (non-obsolete-error-filter)] 17/02/2022 20:00:56 : Starting C:/Program Files/Unity/Hub/Editor/2020.3.26f1/Editor/Data/Tools/ScriptUpdater/APIUpdater.NonObsoleteApiUpdaterDetector.exe
[api-updater (non-obsolete-error-filter)] 
----------------------------------
jit/startup time      : 1160,1733ms
moved types parse time: 68ms
candidates parse time : 1ms
C# parse time         : 784ms
candidates check time : 49ms
console write time    : 2ms

[api-updater (non-obsolete-error-filter)] 17/02/2022 20:02:46 : Starting C:/Program Files/Unity/Hub/Editor/2020.3.26f1/Editor/Data/Tools/ScriptUpdater/APIUpdater.NonObsoleteApiUpdaterDetector.exe
[api-updater (non-obsolete-error-filter)] 
----------------------------------
jit/startup time      : 127,0447ms
moved types parse time: 77ms
candidates parse time : 1ms
C# parse time         : 261ms
candidates check time : 36ms
console write time    : 0ms

[api-updater (non-obsolete-error-filter)] 17/02/2022 20:03:20 : Starting C:/Program Files/Unity/Hub/Editor/2020.3.26f1/Editor/Data/Tools/ScriptUpdater/APIUpdater.NonObsoleteApiUpdaterDetector.exe
[api-updater (non-obsolete-error-filter)] 
----------------------------------
jit/startup time      : 104,9993ms
moved types parse time: 76ms
candidates parse time : 2ms
C# parse time         : 226ms
candidates check time : 37ms
console write time    : 0ms

[api-updater (non-obsolete-error-filter)] 17/02/2022 21:31:25 : Starting C:/Program Files/Unity/Hub/Editor/2020.3.26f1/Editor/Data/Tools/ScriptUpdater/APIUpdater.NonObsoleteApiUpdaterDetector.exe
[api-updater (non-obsolete-error-filter)] 
----------------------------------
jit/startup time      : 1176,5884ms
moved types parse time: 54ms
candidates parse time : 1ms
C# parse time         : 822ms
candidates check time : 43ms
console write time    : 0ms

[api-updater (non-obsolete-error-filter)] 17/02/2022 22:07:55 : Starting C:/Program Files/Unity/Hub/Editor/2020.3.26f1/Editor/Data/Tools/ScriptUpdater/APIUpdater.NonObsoleteApiUpdaterDetector.exe
[api-updater (non-obsolete-error-filter)] 
----------------------------------
jit/startup time      : 77,9686ms
moved types parse time: 43ms
candidates parse time : 1ms
C# parse time         : 162ms
candidates check time : 30ms
console write time    : 0ms

[api-updater (non-obsolete-error-filter)] 17/02/2022 22:11:13 : Starting C:/Program Files/Unity/Hub/Editor/2020.3.26f1/Editor/Data/Tools/ScriptUpdater/APIUpdater.NonObsoleteApiUpdaterDetector.exe
[api-updater (non-obsolete-error-filter)] 
----------------------------------
jit/startup time      : 89,0036ms
moved types parse time: 46ms
candidates parse time : 1ms
C# parse time         : 154ms
candidates check time : 30ms
console write time    : 0ms

[api-updater (non-obsolete-error-filter)] 17/02/2022 22:11:22 : Starting C:/Program Files/Unity/Hub/Editor/2020.3.26f1/Editor/Data/Tools/ScriptUpdater/APIUpdater.NonObsoleteApiUpdaterDetector.exe
[api-updater (non-obsolete-error-filter)] 
----------------------------------
jit/startup time      : 69,9983ms
moved types parse time: 49ms
candidates parse time : 1ms
C# parse time         : 170ms
candidates check time : 31ms
console write time    : 0ms

[api-updater (non-obsolete-error-filter)] 17/02/2022 22:13:18 : Starting C:/Program Files/Unity/Hub/Editor/2020.3.26f1/Editor/Data/Tools/ScriptUpdater/APIUpdater.NonObsoleteApiUpdaterDetector.exe
[api-updater (non-obsolete-error-filter)] 
----------------------------------
jit/startup time      : 76,0026ms
moved types parse time: 50ms
candidates parse time : 1ms
C# parse time         : 157ms
candidates check time : 30ms
console write time    : 0ms

[api-updater (non-obsolete-error-filter)] 17/02/2022 22:17:56 : Starting C:/Program Files/Unity/Hub/Editor/2020.3.26f1/Editor/Data/Tools/ScriptUpdater/APIUpdater.NonObsoleteApiUpdaterDetector.exe
[api-updater (non-obsolete-error-filter)] 
----------------------------------
jit/startup time      : 89,5392ms
moved types parse time: 50ms
candidates parse time : 1ms
C# parse time         : 163ms
candidates check time : 30ms
console write time    : 0ms

[api-updater (non-obsolete-error-filter)] 17/02/2022 22:18:46 : Starting C:/Program Files/Unity/Hub/Editor/2020.3.26f1/Editor/Data/Tools/ScriptUpdater/APIUpdater.NonObsoleteApiUpdaterDetector.exe
[api-updater (non-obsolete-error-filter)] 
----------------------------------
jit/startup time      : 80,0071ms
moved types parse time: 44ms
candidates parse time : 1ms
C# parse time         : 153ms
candidates check time : 30ms
console write time    : 0ms

[api-updater (non-obsolete-error-filter)] 17/02/2022 22:22:22 : Starting C:/Program Files/Unity/Hub/Editor/2020.3.26f1/Editor/Data/Tools/ScriptUpdater/APIUpdater.NonObsoleteApiUpdaterDetector.exe
[api-updater (non-obsolete-error-filter)] 
----------------------------------
jit/startup time      : 85,9974ms
moved types parse time: 48ms
candidates parse time : 1ms
C# parse time         : 164ms
candidates check time : 31ms
console write time    : 0ms

[api-updater (non-obsolete-error-filter)] 17/02/2022 22:23:10 : Starting C:/Program Files/Unity/Hub/Editor/2020.3.26f1/Editor/Data/Tools/ScriptUpdater/APIUpdater.NonObsoleteApiUpdaterDetector.exe
[api-updater (non-obsolete-error-filter)] 
----------------------------------
jit/startup time      : 82,0002ms
moved types parse time: 51ms
candidates parse time : 1ms
C# parse time         : 176ms
candidates check time : 27ms
console write time    : 0ms

[api-updater (non-obsolete-error-filter)] 17/02/2022 22:41:45 : Starting C:/Program Files/Unity/Hub/Editor/2020.3.26f1/Editor/Data/Tools/ScriptUpdater/APIUpdater.NonObsoleteApiUpdaterDetector.exe
[api-updater (non-obsolete-error-filter)] 
----------------------------------
jit/startup time      : 251,4709ms
moved types parse time: 44ms
candidates parse time : 1ms
C# parse time         : 205ms
candidates check time : 31ms
console write time    : 1ms

[api-updater (non-obsolete-error-filter)] 17/02/2022 22:42:33 : Starting C:/Program Files/Unity/Hub/Editor/2020.3.26f1/Editor/Data/Tools/ScriptUpdater/APIUpdater.NonObsoleteApiUpdaterDetector.exe
[api-updater (non-obsolete-error-filter)] 
----------------------------------
jit/startup time      : 81,9969ms
moved types parse time: 47ms
candidates parse time : 1ms
C# parse time         : 165ms
candidates check time : 29ms
console write time    : 0ms

[api-updater (non-obsolete-error-filter)] 17/02/2022 23:09:02 : Starting C:/Program Files/Unity/Hub/Editor/2020.3.26f1/Editor/Data/Tools/ScriptUpdater/APIUpdater.NonObsoleteApiUpdaterDetector.exe
[api-updater (non-obsolete-error-filter)] 
----------------------------------
jit/startup time      : 177,9417ms
moved types parse time: 43ms
candidates parse time : 0ms
C# parse time         : 167ms
candidates check time : 30ms
console write time    : 0ms

[api-updater (non-obsolete-error-filter)] 17/02/2022 23:09:15 : Starting C:/Program Files/Unity/Hub/Editor/2020.3.26f1/Editor/Data/Tools/ScriptUpdater/APIUpdater.NonObsoleteApiUpdaterDetector.exe
[api-updater (non-obsolete-error-filter)] 
----------------------------------
jit/startup time      : 73,0002ms
moved types parse time: 44ms
candidates parse time : 1ms
C# parse time         : 169ms
candidates check time : 31ms
console write time    : 0ms

[api-updater (non-obsolete-error-filter)] 17/02/2022 23:18:02 : Starting C:/Program Files/Unity/Hub/Editor/2020.3.26f1/Editor/Data/Tools/ScriptUpdater/APIUpdater.NonObsoleteApiUpdaterDetector.exe
[api-updater (non-obsolete-error-filter)] 
----------------------------------
jit/startup time      : 178,9998ms
moved types parse time: 47ms
candidates parse time : 1ms
C# parse time         : 181ms
candidates check time : 30ms
console write time    : 0ms

[api-updater (non-obsolete-error-filter)] 26/02/2022 13:16:42 : Starting C:/Program Files/Unity/Hub/Editor/2020.3.26f1/Editor/Data/Tools/ScriptUpdater/APIUpdater.NonObsoleteApiUpdaterDetector.exe
[api-updater (non-obsolete-error-filter)] 
----------------------------------
jit/startup time      : 1190,605ms
moved types parse time: 65ms
candidates parse time : 1ms
C# parse time         : 712ms
candidates check time : 39ms
console write time    : 1ms

[api-updater (non-obsolete-error-filter)] 26/02/2022 19:51:10 : Starting C:/Program Files/Unity/Hub/Editor/2020.3.26f1/Editor/Data/Tools/ScriptUpdater/APIUpdater.NonObsoleteApiUpdaterDetector.exe
[api-updater (non-obsolete-error-filter)] 
----------------------------------
jit/startup time      : 137,0759ms
moved types parse time: 69ms
candidates parse time : 2ms
C# parse time         : 227ms
candidates check time : 49ms
console write time    : 0ms

[api-updater (non-obsolete-error-filter)] 26/02/2022 19:51:50 : Starting C:/Program Files/Unity/Hub/Editor/2020.3.26f1/Editor/Data/Tools/ScriptUpdater/APIUpdater.NonObsoleteApiUpdaterDetector.exe
[api-updater (non-obsolete-error-filter)] 
----------------------------------
jit/startup time      : 103,9668ms
moved types parse time: 71ms
candidates parse time : 1ms
C# parse time         : 229ms
candidates check time : 53ms
console write time    : 0ms

[api-updater (non-obsolete-error-filter)] 28/02/2022 20:38:27 : Starting C:/Program Files/Unity/Hub/Editor/2020.3.26f1/Editor/Data/Tools/ScriptUpdater/APIUpdater.NonObsoleteApiUpdaterDetector.exe
[api-updater (non-obsolete-error-filter)] 
----------------------------------
jit/startup time      : 808,431ms
moved types parse time: 42ms
candidates parse time : 0ms
C# parse time         : 491ms
candidates check time : 29ms
console write time    : 0ms

[api-updater (non-obsolete-error-filter)] 04/03/2022 01:29:37 : Starting C:/Program Files/Unity/Hub/Editor/2020.3.26f1/Editor/Data/Tools/ScriptUpdater/APIUpdater.NonObsoleteApiUpdaterDetector.exe
[api-updater (non-obsolete-error-filter)] 
----------------------------------
jit/startup time      : 748,8871ms
moved types parse time: 43ms
candidates parse time : 1ms
C# parse time         : 496ms
candidates check time : 27ms
console write time    : 0ms

[api-updater (non-obsolete-error-filter)] 06/03/2022 04:34:06 : Starting C:/Program Files/Unity/Hub/Editor/2020.3.26f1/Editor/Data/Tools/ScriptUpdater/APIUpdater.NonObsoleteApiUpdaterDetector.exe
[api-updater (non-obsolete-error-filter)] 
----------------------------------
jit/startup time      : 771,3821ms
moved types parse time: 46ms
candidates parse time : 0ms
C# parse time         : 508ms
candidates check time : 27ms
console write time    : 0ms

[api-updater (non-obsolete-error-filter)] 06/03/2022 14:17:28 : Starting C:/Program Files/Unity/Hub/Editor/2020.3.26f1/Editor/Data/Tools/ScriptUpdater/APIUpdater.NonObsoleteApiUpdaterDetector.exe
[api-updater (non-obsolete-error-filter)] 
----------------------------------
jit/startup time      : 136,2505ms
moved types parse time: 62ms
candidates parse time : 1ms
C# parse time         : 231ms
candidates check time : 38ms
console write time    : 0ms

[api-updater (non-obsolete-error-filter)] 06/03/2022 19:22:15 : Starting C:/Program Files/Unity/Hub/Editor/2020.3.26f1/Editor/Data/Tools/ScriptUpdater/APIUpdater.NonObsoleteApiUpdaterDetector.exe
[api-updater (non-obsolete-error-filter)] 
----------------------------------
jit/startup time      : 774,8556ms
moved types parse time: 42ms
candidates parse time : 0ms
C# parse time         : 492ms
candidates check time : 26ms
console write time    : 0ms

